<?xml version="1.0" standalone="no"?>
<!DOCTYPE svg PUBLIC "-//W3C//DTD SVG 1.1//EN" "http://www.w3.org/Graphics/SVG/1.1/DTD/svg11.dtd" >
<svg xmlns="http://www.w3.org/2000/svg">
<metadata>Generated by IcoMoon</metadata>
<defs>
<font id="icomoon" horiz-adv-x="1024">
<font-face units-per-em="1024" ascent="960" descent="-64" />
<missing-glyph horiz-adv-x="1024" />
<glyph unicode="&#x20;" horiz-adv-x="512" d="" />
<glyph unicode="&#xe900;" glyph-name="gopher" horiz-adv-x="753" d="M353.882 958.227c-4.969-0.71-27.96-3.439-51.093-6.067-62.419-7.089-115.915-24.92-154.81-51.601-12.749-8.744-13.436-8.873-22.588-4.235-13.781 6.985-49.419 8.162-67.302 2.223-59.369-19.72-64.789-100.862-8.678-129.967 13.871-7.196 16.783-9.995 15.492-14.886-11.464-43.407-13.385-162.671-3.614-224.376 2.492-15.736 5.438-38.818 6.547-51.29l2.018-22.679-17.609-3.725c-49.583-10.49-64.824-34.85-38.965-62.27 11.951-12.672 19.39-12.463 39.426 1.112l12.047 8.162v-138.703c0-165.227 1.493-171.61 52.84-225.903l14.872-15.723-15.031-9.741c-29.487-19.106-37.576-45.212-19.337-62.413 16.779-15.825 34.822-14.733 56.143 3.398 8.759 7.448 21.66 16.516 28.668 20.151l12.745 6.607 27.913-9.406c93.655-31.554 239.189-25.743 324.184 12.945 22.622 10.295 23.038 10.153 48.757-16.732 23.976-25.062 29.419-27.578 46.018-21.267 28.896 10.985 26.767 45.709-4.525 73.845l-14.818 13.321 14.123 19.004c49.51 66.622 64.777 154.332 55.866 320.936-1.084 20.294-1.771 36.896-1.527 36.894s6.344-3.375 13.553-7.497c27.977-15.992 50.368-0.898 47.211 31.829-1.248 12.93-13.097 21.216-40.796 28.525-11.228 2.961-21.092 5.946-21.92 6.632s-2.408 55.004-3.511 120.712c-2.061 122.886-2.223 124.687-16.687 186.479-0.964 4.111-0.181 6.776 1.986 6.776 15.699 0 43.305 33.032 47.019 56.26 9.163 57.318-47.217 97.222-108.241 76.61l-19.191-6.483-15.14 10.189c-47.505 31.968-153.355 52.16-222.048 42.357zM470.193 943.533c159.912-28.006 202.438-110.711 207.565-403.674 1.419-81.167 4.087-175.36 5.924-209.318 5.864-108.378-3.964-179.396-33.133-239.435-13.274-27.32-38.737-60.303-48.911-63.356-3.748-1.124-12.235-7.183-18.861-13.464-71.080-67.392-333.882-77.551-393.035-15.194-15.016 15.829-28.992 24.25-40.243 24.25-15.232 0-55.334 52.015-68.653 89.052-7.548 20.99-9.135 120.177-4.504 281.395 2.4 83.543 2.148 91.814-4.23 138.541-23.309 170.822 10.481 311.684 86.882 362.18 63.84 42.193 214.596 65.943 311.2 49.024zM463.046 905.707c-116.678-29.32-92.318-191.864 27.872-185.971 120.015 5.884 121.4 178.287 1.506 187.433-9.939 0.757-23.159 0.1-29.378-1.463zM678.080 899.543c37.946-19.358 39.735-79.262 3.061-102.519-17.495-11.096-15.938-11.736-23.761 9.769l-6.714 18.46 7.674 9.12c15.599 18.539-0.173 39.008-24.363 31.618-5.572-1.704-34.632 28.757-30.948 32.44 10.323 10.323 55.678 10.995 75.051 1.111zM522.020 894.281c76.48-33.83 70.818-145.22-8.467-166.583-85.254-22.97-153.56 64.149-105.391 134.419 24.689 36.019 73.788 49.89 113.858 32.164zM216.828 893.939c-104.126-31.672-83.258-183.848 25.376-185.062 90.586-1.013 135.396 105.16 69.035 163.575-23.597 20.77-65.453 30.296-94.411 21.487zM108.248 890.487c20.213-4.337 20.536-5.792 5.566-25.139-12.233-15.812-13.391-16.538-23.721-14.886-19.846 3.174-30.321-18.116-16.702-33.946l7.13-8.292-5.901-17.476c-6.684-19.793-8.898-20.629-25.259-9.532-61.856 41.95-16.826 125.508 58.888 109.271zM289.734 880.875c82.091-48.109 50.707-165.965-44.275-166.259-98.21-0.305-127.891 126.872-39.46 169.079 22.148 10.569 63.247 9.186 83.735-2.82zM411.976 827.791c-24.403-21.803-0.425-60.149 32.008-51.194 12.098 3.341 22.81 17.064 22.829 29.248 0.045 27.394-33.649 40.877-54.837 21.946zM185.224 828.346c-36.1-8.687-28.047-61.099 9.387-61.099 34.88 0 43.674 45.562 11.398 59.048-10.464 4.373-10.942 4.42-20.785 2.052zM457.914 801.732c6.362-7.667-4.1-16.742-11.162-9.681-4.922 4.922-1.628 14.349 5.013 14.349 1.25 0 4.017-2.101 6.15-4.668zM216.738 792.979c4.514-5.44 1.615-10.673-5.914-10.673-3.117 0-6.543 1.416-7.61 3.144-1.997 3.232 3.55 11.915 7.61 11.915 1.25 0 3.912-1.973 5.914-4.386zM354.895 746.334c-15.889-3.095-26.541-11.102-28.623-21.519-1.143-5.709-4.849-10.603-10.080-13.308-32.617-16.868-32.344-57.154 0.412-60.847l13.685-1.542-2.575-15.477c-6.31-37.943 12.913-59.509 35.629-39.97l8.29 7.132 5.047-6.234c6.408-7.912 24.7-7.932 33.444-0.038 5.495 4.96 6.022 8.256 4.866 30.409l-1.297 24.847h9.594c34.206 0 33.536 44.998-0.915 61.604-9.054 4.363-12.772 8.008-12.772 12.523 0 8.638-13.058 21.096-24.514 23.388-10.737 2.146-14.876 2.014-30.191-0.969zM418.47 707.096c49.624-25.316 23.066-66.168-29.22-44.947l-16.516 6.703-22.163-6.52c-37.022-10.891-52.407-6.952-52.407 13.425 0 22.952 20.284 38.635 38.645 29.879 19.076-9.096 39.113-9.32 54.72-0.61 7.454 4.158 13.946 7.663 14.426 7.785 0.48 0.124 6.112-2.449 12.514-5.715zM368.495 633.976c-2.152-31.767-4.277-37.581-14.694-40.196-17.894-4.491-24.689 7.693-20.725 37.169l2.735 20.344 15.059 5.139c8.282 2.825 16.060 5.197 17.286 5.271 1.224 0.072 1.376-12.405 0.339-27.727zM391.832 655.426c28.728-9.53 24.369-68.412-4.529-61.16-5.048 1.267-8.405 4.559-9.353 9.173-0.813 3.959-2.174 10.547-3.021 14.641-1.911 9.22 1.587 40.744 4.52 40.744 1.18 0 6.754-1.528 12.384-3.398zM721.035 450.080c20.698-7.676 30.694-18.594 27.753-30.312l-1.928-7.674-10.248 6.048c-6.061 3.575-10.989 4.847-12.062 3.11-1-1.615 0.792-3.763 3.979-4.776 9.555-3.032 13.76-9.848 9.352-15.159-5.918-7.132-18.85-5.312-34.12 4.802l-14.069 9.32v20.798c0 24.405 1.306 24.983 31.341 13.843zM69.237 438.212c-0.098-29.348-11.704-45.719-36.89-52.041-10.835-2.718-24.42 9.914-16.072 14.946 12.237 7.377 14.697 9.86 11.64 11.748-1.711 1.058-6.664-0.87-11.004-4.282-8.77-6.899-12.322-3.633-10.374 9.532 3.008 20.311 62.765 39.465 62.699 20.098zM631.689 14.524c15.977-11.573 29.705-38.436 25.732-50.353-4.173-12.521-7.682-11.256-15.915 5.737-4.141 8.548-9.015 15.977-10.827 16.512-1.815 0.533 0.7-7.1 5.591-16.966 16.744-33.783-4.943-36.019-33.788-3.482-10.208 11.514-21.19 21.771-24.403 22.792-9.026 2.863-7.042 8.61 7.642 22.146 16.855 15.537 28.273 16.435 45.969 3.614zM165.495 12.879c4.721-2.441 13.502-10.185 19.516-17.21l10.931-12.772-11.622-5.472c-6.394-3.008-19.648-12.26-29.455-20.559-36.209-30.643-61.85-19.987-35.39 14.707 4.196 5.5 6.882 10.744 5.973 11.656-2.302 2.3-16.008-13.856-20.264-23.887-4.371-10.298-8.12-10.566-10.583-0.753-7.497 29.875 43.13 68.648 70.893 54.291z" />
</font></defs></svg>